{
    "key": "group_5f296c8763041",
    "title": "Options: Social Media",
    "fields": [
        {
            "key": "field_5f296ca027926",
            "label": "Twitter URL",
            "name": "twitter_url",
            "type": "url",
            "instructions": "Add the url for the Twitter account.",
            "required": 0,
            "conditional_logic": 0,
            "wrapper": {
                "width": "",
                "class": "",
                "id": ""
            },
            "default_value": "",
            "placeholder": ""
        },
        {
            "key": "field_5f296cbe27927",
            "label": "Facebook URL",
            "name": "facebook_url",
            "type": "url",
            "instructions": "Add the url for the Facebook account.",
            "required": 0,
            "conditional_logic": 0,
            "wrapper": {
                "width": "",
                "class": "",
                "id": ""
            },
            "default_value": "",
            "placeholder": ""
        },
        {
            "key": "field_5f60828a0c6e8",
            "label": "LinkedIn URL",
            "name": "linkedin_url",
            "type": "url",
            "instructions": "Add the url for the LinkedIn account.",
            "required": 0,
            "conditional_logic": 0,
            "wrapper": {
                "width": "",
                "class": "",
                "id": ""
            },
            "default_value": "",
            "placeholder": ""
        },
        {
            "key": "field_5f86c5069a5a8",
            "label": "Instagram URL",
            "name": "instagram_url",
            "type": "url",
            "instructions": "Add the url for the Instagram account.",
            "required": 0,
            "conditional_logic": 0,
            "wrapper": {
                "width": "",
                "class": "",
                "id": ""
            },
            "default_value": "",
            "placeholder": ""
        }
    ],
    "location": [
        [
            {
                "param": "options_page",
                "operator": "==",
                "value": "acf-options"
            }
        ]
    ],
    "menu_order": 0,
    "position": "normal",
    "style": "default",
    "label_placement": "top",
    "instruction_placement": "label",
    "hide_on_screen": "",
    "active": true,
    "description": "",
    "modified": 1610028201
}