{
    "key": "group_5f2bfd9fb6fd2",
    "title": "Block: Logo banner",
    "fields": [
        {
            "key": "field_5f608476cbb50",
            "label": "Title",
            "name": "hc_logo_banner_title",
            "type": "text",
            "instructions": "Add the title for the block.",
            "required": 0,
            "conditional_logic": 0,
            "wrapper": {
                "width": "",
                "class": "",
                "id": ""
            },
            "default_value": "",
            "placeholder": "",
            "prepend": "",
            "append": "",
            "maxlength": ""
        },
        {
            "key": "field_5f2bfdbb05d5a",
            "label": "Logo banner",
            "name": "hc_logo_banner",
            "type": "repeater",
            "instructions": "Add the images to the logo banner.",
            "required": 0,
            "conditional_logic": 0,
            "wrapper": {
                "width": "",
                "class": "",
                "id": ""
            },
            "collapsed": "",
            "min": 1,
            "max": 6,
            "layout": "block",
            "button_label": "Add logo",
            "sub_fields": [
                {
                    "key": "field_5f2bfdda05d5b",
                    "label": "Image",
                    "name": "hc_logo_banner_image",
                    "type": "image",
                    "instructions": "Add the image to the banner.",
                    "required": 0,
                    "conditional_logic": 0,
                    "wrapper": {
                        "width": "",
                        "class": "",
                        "id": ""
                    },
                    "return_format": "id",
                    "preview_size": "medium",
                    "library": "all",
                    "min_width": "",
                    "min_height": "",
                    "min_size": "",
                    "max_width": "",
                    "max_height": "",
                    "max_size": "",
                    "mime_types": ""
                },
                {
                    "key": "field_5f86c68b4e335",
                    "label": "Link",
                    "name": "hc_logo_banner_link",
                    "type": "link",
                    "instructions": "Add a link URL and text for the logo to link to if required.",
                    "required": 0,
                    "conditional_logic": 0,
                    "wrapper": {
                        "width": "",
                        "class": "",
                        "id": ""
                    },
                    "return_format": "array"
                }
            ]
        }
    ],
    "location": [
        [
            {
                "param": "block",
                "operator": "==",
                "value": "acf\/logo-banner"
            }
        ]
    ],
    "menu_order": 0,
    "position": "normal",
    "style": "default",
    "label_placement": "top",
    "instruction_placement": "label",
    "hide_on_screen": "",
    "active": true,
    "description": "",
    "modified": 1609933188
}